{
	"id": "3d741bb8-b542-4610-ba0c-e3169a5b0513",
	"name": "SpaceX",
	"values": [
		{
			"key": "user_id",
			"value": "",
			"enabled": true
		}
	],
	"_postman_variable_scope": "environment",
	"_postman_exported_at": "2021-06-11T13:19:40.499Z",
	"_postman_exported_using": "Postman/8.6.1"
}